Report the representative datapoints in a SuperPlot — representative • SuperPlotR
…
    Examples

representative(lord_jcb,
  "Speed", "Treatment", "Replicate")
#> # A tibble: 6 × 6
#>   Treatment Replicate Speed rowno     diff  rank
#>   <chr>     <chr>     <dbl> <int>    <dbl> <int>
#> 1 Control   1          41.5     5 0.0524       1
#> 2 Control   2          32.9    98 0.220        1
#> 3 Control   3          20.7   124 0.0541       1
#> 4 Drug      1          29.4   178 0.217        1
#> 5 Drug      2          22.3   207 0.000237     1
#> 6 Drug      3          12.9   285 0.0113       1
#> # A tibble: 300 × 6
#>    Treatment Replicate Speed rowno   diff  rank
#>    <chr>     <chr>     <dbl> <int>  <dbl> <int>
#>  1 Control   1          41.5     5 0.0524     1
#>  2 Control   1          41.4    13 0.0875     2
#>  3 Control   1          41.9     2 0.366      3
#>  4 Control   1          42.2    31 0.688      4
#>  5 Control   1          40.2    26 1.26       5
#>  6 Control   1          39.6    36 1.86       6
#>  7 Control   1          39.5    37 1.97       7
#>  8 Control   1          43.7     1 2.20       8
#>  9 Control   1          39.2    27 2.24       9
#> 10 Control   1          43.8    17 2.27      10
#> # ℹ 290 more rows
…
